Kobe - Looking Back at a Laker Legend
…
Shot Breakdown - FG% vs EFG%

# A tibble: 30 x 6
   `Shot Distance ~ `FG%` `EFG%` `Points per Sho~ `Total Shots` `Percent of Tot~
              <int> <dbl>  <dbl>            <dbl>         <int>            <dbl>
 1                0 0.640  0.640            1.28           4729           0.180 
 2                1 0.677  0.677            1.35            551           0.021 
 3                2 0.549  0.549            1.10            512           0.0195
 4                3 0.432  0.432            0.865           333           0.0127
 5                4 0.449  0.449            0.899           316           0.0121
 6                5 0.449  0.449            0.898           450           0.0172
 7                6 0.426  0.426            0.852           526           0.0201
 8                7 0.433  0.433            0.866           584           0.0223
 9                8 0.462  0.462            0.923           559           0.0213
10                9 0.423  0.423            0.846           501           0.0191
# ... with 20 more rows
…
Shots by Zone - Over the Course of a Career

# A tibble: 7 x 6
  `Shot Zone`     `FG%` `EFG%` `Points per Sho~ `Total Shots` `Percent of Total~
  <fct>           <dbl>  <dbl>            <dbl>         <int> <chr>             
1 Above the Bre~ 0.330  0.496            0.991           4849 18.51%            
2 Backcourt      0.0182 0.0273           0.0545            55 0.21%             
3 In The Paint ~ 0.451  0.451            0.901           3817 14.57%            
4 Left Corner 3  0.352  0.529            1.06             244 0.93%             
5 Mid-Range      0.406  0.408            0.815          10771 41.11%            
6 Restricted Ar~ 0.624  0.624            1.25            6125 23.38%            
7 Right Corner 3 0.326  0.490            0.979            337 1.29%             

# A tibble: 80 x 7
# Groups:   Season [20]
   Season `Shot Zone` `FG%` `EFG%` `Points per Sho~ `Total Shots`
    <dbl> <fct>       <dbl>  <dbl>            <dbl>         <int>
 1   1996 Above the ~ 0.343  0.515            1.03             67
 2   1997 Above the ~ 0.353  0.529            1.06            204
 3   1998 Above the ~ 0.260  0.391            0.781            96
 4   1999 Above the ~ 0.328  0.492            0.985           131
 5   2000 Above the ~ 0.3    0.45             0.9             170
 6   2001 Above the ~ 0.258  0.388            0.775           120
 7   2002 Above the ~ 0.395  0.593            1.19            286
 8   2003 Above the ~ 0.345  0.517            1.03            177
 9   2004 Above the ~ 0.349  0.523            1.05            327
10   2005 Above the ~ 0.350  0.523            1.05            472
# ... with 70 more rows, and 1 more variable: `Percent of Season Shots` <chr>
…
Warning! The custom fig.path you set was ignored by workflowr.

Shots by Opponent

# A tibble: 529 x 7
# Groups:   Season [20]
   Season Opponent `FG%` `EFG%` `Points per Shot` `Total Shots` `Percent of Sea~
    <dbl> <chr>    <dbl>  <dbl>             <dbl>         <int> <chr>           
 1   1996 ATL      0      0                 0                 4 0.95%           
 2   1997 ATL      0.5    0.562             1.12             24 2.63%           
 3   1999 ATL      0.526  0.526             1.05             19 1.61%           
 4   2000 ATL      0.454  0.454             0.909            22 1.46%           
 5   2001 ATL      0.606  0.606             1.21             33 2.07%           
 6   2002 ATL      0.442  0.488             0.977            43 2.23%           
 7   2003 ATL      0.474  0.526             1.05             19 1.61%           
 8   2004 ATL      0.5    0.542             1.08             12 0.91%           
 9   2005 ATL      0.537  0.583             1.17             54 2.49%           
10   2006 ATL      0.556  0.611             1.22             18 1.02%           
# ... with 519 more rows
…
